memories/I_mem/simulation/qsim/Instruction_mem.msim.vcd
$comment
	File created using the following command:
		vcd file Instruction_mem.msim.vcd -direction
$end
$date
	Thu Jul 18 13:23:14 2024
$end
$version
	ModelSim Version 2020.1
$end
$timescale
	1ps
$end

$scope module instruction_mem_vhd_vec_tst $end
$var wire 1 ! Instruction [3] $end
$var wire 1 " Instruction [2] $end
$var wire 1 # Instruction [1] $end
$var wire 1 $ Instruction [0] $end
$var wire 1 % Read_Address [1] $end
$var wire 1 & Read_Address [0] $end

$scope module i1 $end
$var wire 1 ' gnd $end
$var wire 1 ( vcc $end
$var wire 1 ) unknown $end
$var wire 1 * devoe $end
$var wire 1 + devclrn $end
$var wire 1 , devpor $end
$var wire 1 - ww_devoe $end
$var wire 1 . ww_devclrn $end
$var wire 1 / ww_devpor $end
$var wire 1 0 ww_Read_Address [1] $end
$var wire 1 1 ww_Read_Address [0] $end
$var wire 1 2 ww_Instruction [3] $end
$var wire 1 3 ww_Instruction [2] $end
$var wire 1 4 ww_Instruction [1] $end
$var wire 1 5 ww_Instruction [0] $end
$var wire 1 6 \Read_Address[0]~input_o\ $end
$var wire 1 7 \Read_Address[1]~input_o\ $end
$var wire 1 8 \~QUARTUS_CREATED_GND~I_combout\ $end
$upscope $end
$upscope $end
$enddefinitions $end
#0
$dumpvars
0'
1(
x)
1*
1+
1,
1-
1.
1/
06
07
x8
0%
0&
00
01
02
03
04
05
0!
0"
0#
0$
$end
#10000
1&
11
16
#20000
0&
01
06
#30000
1%
10
17
#50000
1&
11
16
#60000
0&
01
06
#90000
1&
11
16
#100000
0&
01
06
#110000
1&
0%
11
00
07
16
#120000
0&
01
06
#130000
1%
10
17
#170000
0%
1&
11
00
07
16
#180000
1%
10
17
#210000
0%
0&
01
00
07
06
#220000
1&
11
16
#230000
1%
10
17
#240000
0&
01
06
#250000
0%
00
07
#260000
1%
10
17
#280000
0%
00
07
#290000
1%
1&
11
10
17
16
#310000
0%
0&
01
00
07
06
#320000
1%
1&
11
10
17
16
#330000
0&
01
06
#350000
1&
11
16
#360000
0%
00
07
#370000
1%
0&
01
10
17
06
#390000
1&
11
16
#400000
0&
01
06
#420000
1&
0%
11
00
07
16
#430000
0&
1%
01
10
17
06
#440000
0%
00
07
#460000
1%
1&
11
10
17
16
#470000
0&
01
06
#480000
0%
00
07
#490000
1%
10
17
#500000
1&
11
16
#510000
0&
0%
01
00
07
06
#520000
1%
10
17
#540000
0%
00
07
#550000
1%
1&
11
10
17
16
#560000
0&
01
06
#570000
1&
11
16
#590000
0&
0%
01
00
07
06
#600000
1%
10
17
#610000
0%
1&
11
00
07
16
#620000
1%
10
17
#630000
0%
00
07
#640000
1%
10
17
#650000
0%
00
07
#660000
0&
01
06
#670000
1%
10
17
#680000
1&
11
16
#690000
0%
00
07
#720000
1%
0&
01
10
17
06
#730000
1&
11
16
#740000
0&
0%
01
00
07
06
#750000
1%
10
17
#760000
1&
11
16
#770000
0&
01
06
#780000
0%
00
07
#800000
1%
10
17
#810000
0%
00
07
#820000
1%
1&
11
10
17
16
#830000
0%
00
07
#840000
1%
0&
01
10
17
06
#870000
0%
00
07
#890000
1&
11
16
#910000
0&
01
06
#920000
1%
10
17
#930000
0%
00
07
#960000
1%
1&
11
10
17
16
#970000
0&
01
06
#980000
0%
00
07
