Datapath/Shift_left_MIPS/simulation/qsim/Shift_left_circuit.msim.vcd
$comment
	File created using the following command:
		vcd file Shift_left_circuit.msim.vcd -direction
$end
$date
	Thu Jul 18 23:52:18 2024
$end
$version
	ModelSim Version 2020.1
$end
$timescale
	1ps
$end

$scope module shift_left_circuit_vhd_vec_tst $end
$var wire 1 ! i_data [31] $end
$var wire 1 " i_data [30] $end
$var wire 1 # i_data [29] $end
$var wire 1 $ i_data [28] $end
$var wire 1 % i_data [27] $end
$var wire 1 & i_data [26] $end
$var wire 1 ' i_data [25] $end
$var wire 1 ( i_data [24] $end
$var wire 1 ) i_data [23] $end
$var wire 1 * i_data [22] $end
$var wire 1 + i_data [21] $end
$var wire 1 , i_data [20] $end
$var wire 1 - i_data [19] $end
$var wire 1 . i_data [18] $end
$var wire 1 / i_data [17] $end
$var wire 1 0 i_data [16] $end
$var wire 1 1 i_data [15] $end
$var wire 1 2 i_data [14] $end
$var wire 1 3 i_data [13] $end
$var wire 1 4 i_data [12] $end
$var wire 1 5 i_data [11] $end
$var wire 1 6 i_data [10] $end
$var wire 1 7 i_data [9] $end
$var wire 1 8 i_data [8] $end
$var wire 1 9 i_data [7] $end
$var wire 1 : i_data [6] $end
$var wire 1 ; i_data [5] $end
$var wire 1 < i_data [4] $end
$var wire 1 = i_data [3] $end
$var wire 1 > i_data [2] $end
$var wire 1 ? i_data [1] $end
$var wire 1 @ i_data [0] $end
$var wire 1 A o_data [31] $end
$var wire 1 B o_data [30] $end
$var wire 1 C o_data [29] $end
$var wire 1 D o_data [28] $end
$var wire 1 E o_data [27] $end
$var wire 1 F o_data [26] $end
$var wire 1 G o_data [25] $end
$var wire 1 H o_data [24] $end
$var wire 1 I o_data [23] $end
$var wire 1 J o_data [22] $end
$var wire 1 K o_data [21] $end
$var wire 1 L o_data [20] $end
$var wire 1 M o_data [19] $end
$var wire 1 N o_data [18] $end
$var wire 1 O o_data [17] $end
$var wire 1 P o_data [16] $end
$var wire 1 Q o_data [15] $end
$var wire 1 R o_data [14] $end
$var wire 1 S o_data [13] $end
$var wire 1 T o_data [12] $end
$var wire 1 U o_data [11] $end
$var wire 1 V o_data [10] $end
$var wire 1 W o_data [9] $end
$var wire 1 X o_data [8] $end
$var wire 1 Y o_data [7] $end
$var wire 1 Z o_data [6] $end
$var wire 1 [ o_data [5] $end
$var wire 1 \ o_data [4] $end
$var wire 1 ] o_data [3] $end
$var wire 1 ^ o_data [2] $end
$var wire 1 _ o_data [1] $end
$var wire 1 ` o_data [0] $end

$scope module i1 $end
$var wire 1 a gnd $end
$var wire 1 b vcc $end
$var wire 1 c unknown $end
$var wire 1 d devoe $end
$var wire 1 e devclrn $end
$var wire 1 f devpor $end
$var wire 1 g ww_devoe $end
$var wire 1 h ww_devclrn $end
$var wire 1 i ww_devpor $end
$var wire 1 j ww_i_data [31] $end
$var wire 1 k ww_i_data [30] $end
$var wire 1 l ww_i_data [29] $end
$var wire 1 m ww_i_data [28] $end
$var wire 1 n ww_i_data [27] $end
$var wire 1 o ww_i_data [26] $end
$var wire 1 p ww_i_data [25] $end
$var wire 1 q ww_i_data [24] $end
$var wire 1 r ww_i_data [23] $end
$var wire 1 s ww_i_data [22] $end
$var wire 1 t ww_i_data [21] $end
$var wire 1 u ww_i_data [20] $end
$var wire 1 v ww_i_data [19] $end
$var wire 1 w ww_i_data [18] $end
$var wire 1 x ww_i_data [17] $end
$var wire 1 y ww_i_data [16] $end
$var wire 1 z ww_i_data [15] $end
$var wire 1 { ww_i_data [14] $end
$var wire 1 | ww_i_data [13] $end
$var wire 1 } ww_i_data [12] $end
$var wire 1 ~ ww_i_data [11] $end
$var wire 1 !! ww_i_data [10] $end
$var wire 1 "! ww_i_data [9] $end
$var wire 1 #! ww_i_data [8] $end
$var wire 1 $! ww_i_data [7] $end
$var wire 1 %! ww_i_data [6] $end
$var wire 1 &! ww_i_data [5] $end
$var wire 1 '! ww_i_data [4] $end
$var wire 1 (! ww_i_data [3] $end
$var wire 1 )! ww_i_data [2] $end
$var wire 1 *! ww_i_data [1] $end
$var wire 1 +! ww_i_data [0] $end
$var wire 1 ,! ww_o_data [31] $end
$var wire 1 -! ww_o_data [30] $end
$var wire 1 .! ww_o_data [29] $end
$var wire 1 /! ww_o_data [28] $end
$var wire 1 0! ww_o_data [27] $end
$var wire 1 1! ww_o_data [26] $end
$var wire 1 2! ww_o_data [25] $end
$var wire 1 3! ww_o_data [24] $end
$var wire 1 4! ww_o_data [23] $end
$var wire 1 5! ww_o_data [22] $end
$var wire 1 6! ww_o_data [21] $end
$var wire 1 7! ww_o_data [20] $end
$var wire 1 8! ww_o_data [19] $end
$var wire 1 9! ww_o_data [18] $end
$var wire 1 :! ww_o_data [17] $end
$var wire 1 ;! ww_o_data [16] $end
$var wire 1 <! ww_o_data [15] $end
$var wire 1 =! ww_o_data [14] $end
$var wire 1 >! ww_o_data [13] $end
$var wire 1 ?! ww_o_data [12] $end
$var wire 1 @! ww_o_data [11] $end
$var wire 1 A! ww_o_data [10] $end
$var wire 1 B! ww_o_data [9] $end
$var wire 1 C! ww_o_data [8] $end
$var wire 1 D! ww_o_data [7] $end
$var wire 1 E! ww_o_data [6] $end
$var wire 1 F! ww_o_data [5] $end
$var wire 1 G! ww_o_data [4] $end
$var wire 1 H! ww_o_data [3] $end
$var wire 1 I! ww_o_data [2] $end
$var wire 1 J! ww_o_data [1] $end
$var wire 1 K! ww_o_data [0] $end
$var wire 1 L! \i_data[30]~input_o\ $end
$var wire 1 M! \i_data[31]~input_o\ $end
$var wire 1 N! \~QUARTUS_CREATED_GND~I_combout\ $end
$var wire 1 O! \i_data[0]~input_o\ $end
$var wire 1 P! \i_data[1]~input_o\ $end
$var wire 1 Q! \i_data[2]~input_o\ $end
$var wire 1 R! \i_data[3]~input_o\ $end
$var wire 1 S! \i_data[4]~input_o\ $end
$var wire 1 T! \i_data[5]~input_o\ $end
$var wire 1 U! \i_data[6]~input_o\ $end
$var wire 1 V! \i_data[7]~input_o\ $end
$var wire 1 W! \i_data[8]~input_o\ $end
$var wire 1 X! \i_data[9]~input_o\ $end
$var wire 1 Y! \i_data[10]~input_o\ $end
$var wire 1 Z! \i_data[11]~input_o\ $end
$var wire 1 [! \i_data[12]~input_o\ $end
$var wire 1 \! \i_data[13]~input_o\ $end
$var wire 1 ]! \i_data[14]~input_o\ $end
$var wire 1 ^! \i_data[15]~input_o\ $end
$var wire 1 _! \i_data[16]~input_o\ $end
$var wire 1 `! \i_data[17]~input_o\ $end
$var wire 1 a! \i_data[18]~input_o\ $end
$var wire 1 b! \i_data[19]~input_o\ $end
$var wire 1 c! \i_data[20]~input_o\ $end
$var wire 1 d! \i_data[21]~input_o\ $end
$var wire 1 e! \i_data[22]~input_o\ $end
$var wire 1 f! \i_data[23]~input_o\ $end
$var wire 1 g! \i_data[24]~input_o\ $end
$var wire 1 h! \i_data[25]~input_o\ $end
$var wire 1 i! \i_data[26]~input_o\ $end
$var wire 1 j! \i_data[27]~input_o\ $end
$var wire 1 k! \i_data[28]~input_o\ $end
$var wire 1 l! \i_data[29]~input_o\ $end
$upscope $end
$upscope $end
$enddefinitions $end
#0
$dumpvars
0a
1b
xc
1d
1e
1f
1g
1h
1i
1L!
1M!
xN!
0O!
1P!
1Q!
1R!
0S!
1T!
1U!
0V!
0W!
0X!
1Y!
1Z!
0[!
1\!
1]!
0^!
0_!
1`!
0a!
1b!
1c!
1d!
0e!
1f!
0g!
1h!
1i!
1j!
1k!
0l!
1!
1"
0#
1$
1%
1&
1'
0(
1)
0*
1+
1,
1-
0.
1/
00
01
12
13
04
15
16
07
08
09
1:
1;
0<
1=
1>
1?
0@
1j
1k
0l
1m
1n
1o
1p
0q
1r
0s
1t
1u
1v
0w
1x
0y
0z
1{
1|
0}
1~
1!!
0"!
0#!
0$!
1%!
1&!
0'!
1(!
1)!
1*!
0+!
0,!
1-!
1.!
1/!
10!
01!
12!
03!
14!
15!
16!
07!
18!
09!
0:!
1;!
1<!
0=!
1>!
1?!
0@!
0A!
0B!
1C!
1D!
0E!
1F!
1G!
1H!
0I!
0J!
0K!
0A
1B
1C
1D
1E
0F
1G
0H
1I
1J
1K
0L
1M
0N
0O
1P
1Q
0R
1S
1T
0U
0V
0W
1X
1Y
0Z
1[
1\
1]
0^
0_
0`
$end
#10000
0"
0&
1(
0-
1.
0/
03
14
05
06
17
0?
0*!
1"!
0!!
0~
1}
0|
0x
1w
0v
1q
0o
0k
0L!
0i!
1g!
0b!
1a!
0`!
0\!
1[!
0Z!
0Y!
1X!
0P!
0H!
1@!
0?!
0>!
1=!
0<!
08!
17!
06!
11!
0/!
0]
1U
0T
0S
1R
0Q
0M
1L
0K
1F
0D
#20000
1"
0.
04
16
07
1?
0!
1#
0,
10
18
19
0=
1*!
0(!
1$!
1#!
0"!
1!!
0}
1y
0w
0u
1l
1k
0j
0M!
1L!
1l!
0c!
0a!
1_!
0[!
1Y!
0X!
1W!
1V!
0R!
1P!
1H!
0F!
1B!
1A!
0@!
1?!
0=!
19!
07!
05!
1,!
1]
0[
1W
1V
0U
1T
0R
1N
0L
0J
1A
#30000
0"
1.
17
0?
1!
0#
1,
1=
1-
1/
13
15
0%
1*
11
1<
1@
1+!
0*!
1(!
1'!
1"!
1~
1|
1z
1x
1w
1v
1u
1s
0n
0l
0k
1j
1M!
0L!
0l!
0j!
1e!
1c!
1b!
1a!
1`!
1^!
1\!
1Z!
1X!
1S!
1R!
0P!
1O!
1I!
0H!
1F!
1E!
1@!
1>!
1<!
1:!
18!
17!
16!
15!
13!
0.!
0,!
1^
0]
1[
1Z
1U
1S
1Q
1O
1M
1L
1K
1J
1H
0C
0A
#40000
0.
07
1#
0,
0=
0-
0/
03
0*
01
0<
0@
14
00
08
1&
0(
0$
0)
0+
0>
0+!
0)!
0(!
0'!
0#!
0"!
1}
0|
0z
0y
0x
0w
0v
0u
0t
0s
0r
0q
1o
0m
1l
1l!
0k!
1i!
0g!
0f!
0e!
0d!
0c!
0b!
0a!
0`!
0_!
0^!
0\!
1[!
0X!
0W!
0S!
0R!
0Q!
0O!
0I!
0G!
0F!
0E!
0A!
0@!
1=!
0<!
0:!
09!
08!
07!
06!
05!
04!
03!
02!
01!
1/!
0-!
1,!
0^
0\
0[
0Z
0V
0U
1R
0Q
0O
0N
0M
0L
0K
0J
0I
0H
0G
0F
1D
0B
1A
#50000
1.
17
1-
13
11
0&
1$
1)
1+
1"
0!
1%
0'
1"!
1|
1z
1w
1v
1t
1r
0p
0o
1n
1m
1k
0j
0M!
1L!
1k!
1j!
0i!
0h!
1f!
1d!
1b!
1a!
1^!
1\!
1X!
1@!
1<!
1:!
17!
16!
14!
12!
00!
0/!
1.!
1-!
1U
1Q
1O
1L
1K
1I
1G
0E
0D
1C
1B
#60000
0.
07
0-
01
0$
0"
0%
0#
1=
1*
1@
10
18
1(
1>
1?
09
02
0:
0;
1+!
1*!
1)!
1(!
0&!
0%!
0$!
1#!
0"!
0{
0z
1y
0w
0v
1s
1q
0n
0m
0l
0k
0L!
0l!
0k!
0j!
1g!
1e!
0b!
0a!
1_!
0^!
0]!
0X!
1W!
0V!
0U!
0T!
1R!
1Q!
1P!
1O!
1I!
1H!
1G!
1F!
0D!
0C!
0B!
1A!
0@!
0;!
0:!
19!
07!
06!
13!
11!
0.!
0-!
0,!
1^
1]
1\
1[
0Y
0X
0W
1V
0U
0P
0O
1N
0L
0K
1H
1F
0C
0B
0A
#70000
1.
11
1$
1"
1#
0=
0*
00
08
0>
0?
19
12
0+
1'
1,
1/
1<
04
05
06
0*!
0)!
0(!
1'!
1$!
0#!
0!!
0~
0}
1{
1z
0y
1x
1w
1u
0t
0s
1p
1m
1l
1k
1L!
1l!
1k!
1h!
0e!
0d!
1c!
1a!
1`!
0_!
1^!
1]!
0[!
0Z!
0Y!
0W!
1V!
1S!
0R!
0Q!
0P!
0H!
0G!
0F!
1E!
1B!
0A!
0?!
0>!
0=!
1;!
1:!
09!
18!
17!
15!
04!
03!
10!
1-!
1,!
0]
0\
0[
1Z
1W
0V
0T
0S
0R
1P
1O
0N
1M
1L
1J
0I
0H
1E
1B
1A
#80000
0.
0$
0"
0#
1=
10
1>
09
02
0'
0,
0/
15
16
17
1-
0@
1;
03
1&
0)
0+!
1)!
1(!
1&!
0$!
1"!
1!!
1~
0|
0{
1y
0x
0w
1v
0u
0r
0p
1o
0m
0l
0k
0L!
0l!
0k!
1i!
0h!
0f!
0c!
1b!
0a!
0`!
1_!
0]!
0\!
1Z!
1Y!
1X!
0V!
1T!
1R!
1Q!
0O!
0I!
1G!
1F!
1D!
0B!
1@!
1?!
1>!
0<!
0;!
19!
08!
07!
16!
05!
02!
00!
1/!
0-!
0,!
0^
1\
1[
1Y
0W
1U
1T
1S
0Q
0P
1N
0M
0L
1K
0J
0G
0E
1D
0B
0A
#90000
1"
0=
00
1/
05
0-
0;
13
1)
1+
0<
14
1%
0(
1!
0(!
0'!
0&!
0~
1}
1|
0y
1x
0v
1t
1r
0q
1n
1k
1j
1M!
1L!
1j!
0g!
1f!
1d!
0b!
1`!
0_!
1\!
1[!
0Z!
0T!
0S!
0R!
0F!
0E!
0D!
0>!
1=!
1<!
09!
18!
06!
14!
12!
01!
1.!
0[
0Z
0Y
0S
1R
1Q
0N
1M
0K
1I
1G
0F
1C
#100000
1=
10
15
03
1<
0%
1.
1#
1'
07
0&
18
1?
1:
1*!
1(!
1'!
1%!
1#!
0"!
1~
0|
1y
1w
1p
0o
0n
1l
1l!
0j!
0i!
1h!
1a!
1_!
0\!
1Z!
0X!
1W!
1U!
1S!
1R!
1P!
1H!
1F!
1E!
1C!
1A!
0@!
1>!
0<!
19!
17!
10!
0/!
0.!
1,!
1]
1[
1Z
1X
1V
0U
1S
0Q
1N
1L
1E
0D
0C
1A
#110000
00
13
0<
0'
17
1&
08
0:
1-
1;
04
0>
12
1@
01
1*
1+!
0)!
0'!
1&!
0%!
0#!
1"!
0}
1|
1{
0z
0y
1v
1s
0p
1o
1i!
0h!
1e!
1b!
0_!
0^!
1]!
1\!
0[!
1X!
0W!
0U!
1T!
0S!
0Q!
1O!
1I!
0G!
0E!
1D!
0C!
0A!
1@!
0=!
1<!
1;!
0:!
09!
16!
13!
00!
1/!
1^
0\
0Z
1Y
0X
0V
1U
0R
1Q
1P
0O
0N
1K
1H
0E
1D
#120000
10
03
07
1:
0-
0;
1>
02
0=
1%
0#
0?
0)
0+
1(
1$
1,
0*!
1)!
0(!
0&!
1%!
0"!
0|
0{
1y
0v
1u
0t
0r
1q
1n
1m
0l
0l!
1k!
1j!
1g!
0f!
0d!
1c!
0b!
1_!
0]!
0\!
0X!
1U!
0T!
0R!
1Q!
0P!
0H!
1G!
0F!
0D!
1C!
0@!
0<!
0;!
19!
06!
15!
04!
02!
11!
1.!
1-!
0,!
0]
1\
0[
0Y
1X
0U
0Q
0P
1N
0K
1J
0I
0G
1F
1C
1B
0A
#130000
17
0:
1-
1=
0%
1)
1<
0&
18
14
0!
19
06
1(!
1'!
0%!
1$!
1#!
1"!
0!!
1}
1v
1r
0o
0n
0j
0M!
0j!
0i!
1f!
1b!
1[!
0Y!
1X!
1W!
1V!
0U!
1S!
1R!
1F!
1E!
0C!
1B!
1A!
1@!
0?!
1=!
16!
12!
0/!
0.!
1[
1Z
0X
1W
1V
1U
0T
1R
1K
1G
0D
0C
#140000
1:
0=
1%
0)
08
1!
1;
12
1#
1+
0(
0$
0,
1'
0@
0*
0.
0"
0+!
0(!
1&!
1%!
0#!
1{
0w
0u
1t
0s
0r
0q
1p
1n
0m
1l
0k
1j
1M!
0L!
1l!
0k!
1j!
1h!
0g!
0f!
0e!
1d!
0c!
0a!
1]!
0W!
1U!
1T!
0R!
0O!
0I!
0F!
1D!
1C!
0A!
1;!
07!
05!
14!
03!
02!
01!
10!
1.!
0-!
1,!
0^
0[
1Y
1X
0V
1P
0L
0J
1I
0H
0G
0F
1E
1C
0B
1A
#150000
1=
18
02
0#
0+
1(
1$
1,
0'
1.
07
04
16
00
13
1?
11
05
0/
1*!
1(!
1#!
0"!
1!!
0~
0}
1|
0{
1z
0y
0x
1w
1u
0t
1q
0p
1m
0l
0l!
1k!
0h!
1g!
0d!
1c!
1a!
0`!
0_!
1^!
0]!
1\!
0[!
0Z!
1Y!
0X!
1W!
1R!
1P!
1H!
1F!
1A!
0@!
1?!
0>!
0=!
1<!
0;!
1:!
09!
08!
17!
15!
04!
11!
00!
1-!
0,!
1]
1[
1V
0U
1T
0S
0R
1Q
0P
1O
0N
0M
1L
1J
0I
1F
0E
1B
0A
#160000
0=
12
1#
0(
0.
17
10
0?
01
1/
0%
1)
0!
0;
1@
1*
0-
09
1+!
0*!
0(!
0&!
0$!
1"!
1{
0z
1y
1x
0w
0v
1s
1r
0q
0n
1l
0j
0M!
1l!
0j!
0g!
1f!
1e!
0b!
0a!
1`!
1_!
0^!
1]!
1X!
0V!
0T!
0R!
0P!
1O!
1I!
0H!
0F!
0D!
0B!
1@!
1;!
0:!
19!
18!
07!
06!
13!
12!
01!
0.!
1,!
1^
0]
0[
0Y
0W
1U
1P
0O
1N
1M
0L
0K
1H
1G
0F
0C
1A
#170000
1=
1(
07
00
0/
1-
08
1+
1'
06
0:
1"
0>
0)!
1(!
0%!
0#!
0"!
0!!
0y
0x
1v
1t
1q
1p
1k
1L!
1h!
1g!
1d!
1b!
0`!
0_!
0Y!
0X!
0W!
0U!
1R!
0Q!
0G!
1F!
0C!
0A!
0@!
0?!
09!
08!
16!
14!
11!
10!
0\
1[
0X
0V
0U
0T
0N
0M
1K
1I
1F
1E
#180000
0(
1/
18
16
02
1%
0)
1!
19
14
03
0<
1&
0'!
1$!
1#!
1!!
1}
0|
0{
1x
0r
0q
1o
1n
1j
1M!
1j!
1i!
0g!
0f!
1`!
0]!
0\!
1[!
1Y!
1W!
1V!
0S!
0E!
1B!
1A!
1?!
1=!
0<!
0;!
18!
02!
01!
1/!
1.!
0Z
1W
1V
1T
1R
0Q
0P
1M
0G
0F
1D
1C
#190000
1(
0/
12
0%
0!
04
13
1<
0&
0=
17
10
0-
0+
0'
1:
0"
11
1;
0*
15
0(!
1'!
1&!
1%!
1"!
1~
0}
1|
1{
1z
1y
0x
0v
0t
0s
1q
0p
0o
0n
0k
0j
0M!
0L!
0j!
0i!
0h!
1g!
0e!
0d!
0b!
0`!
1_!
1^!
1]!
1\!
0[!
1Z!
1X!
1U!
1T!
1S!
0R!
0F!
1E!
1D!
1C!
1@!
1>!
0=!
1<!
1;!
1:!
19!
08!
06!
04!
03!
11!
00!
0/!
0.!
0[
1Z
1Y
1X
1U
1S
0R
1Q
1P
1O
1N
0M
0K
0I
0H
1F
0E
0D
0C
#200000
0(
1%
0<
1=
1+
0:
01
1*
08
06
1)
1?
0@
0+!
1*!
1(!
0'!
0%!
0#!
0!!
0z
1t
1s
1r
0q
1n
1j!
0g!
1f!
1e!
1d!
0^!
0Y!
0W!
0U!
0S!
1R!
1P!
0O!
0I!
1H!
1F!
0E!
0C!
0A!
0?!
0:!
14!
13!
12!
01!
1.!
0^
1]
1[
0Z
0X
0V
0T
0O
1I
1H
1G
0F
1C
#210000
1<
11
18
0)
0?
1@
1/
03
1&
07
00
1'
1>
1.
1+!
0*!
1)!
1'!
1#!
0"!
0|
1z
0y
1x
1w
0r
1p
1o
1i!
1h!
0f!
1a!
1`!
0_!
1^!
0\!
0X!
1W!
1S!
1Q!
0P!
1O!
1I!
0H!
1G!
1E!
1A!
0@!
0<!
1:!
09!
18!
17!
02!
10!
1/!
1^
0]
1\
1Z
1V
0U
0Q
1O
0N
1M
1L
0G
1E
1D
#220000
08
1?
0/
17
10
0'
0.
1(
0=
1:
0*
14
1"
0$
1*!
0(!
1%!
0#!
1"!
1}
1y
0x
0w
0s
1q
0p
0m
1k
1L!
0k!
0h!
1g!
0e!
0a!
0`!
1_!
1[!
1X!
0W!
1U!
0R!
1P!
1H!
0F!
1C!
0A!
1@!
1=!
19!
08!
07!
03!
11!
00!
0-!
1]
0[
1X
0V
1U
1R
1N
0M
0L
0H
1F
0E
0B
#230000
18
0?
1/
07
1.
04
0"
0<
1)
0@
0%
02
0;
09
0+!
0*!
0'!
0&!
0$!
1#!
0"!
0}
0{
1x
1w
1r
0n
0k
0L!
0j!
1f!
1a!
1`!
0]!
0[!
0X!
1W!
0V!
0T!
0S!
0P!
0O!
0I!
0H!
0E!
0D!
0B!
1A!
0@!
0=!
0;!
18!
17!
12!
0.!
0^
0]
0Z
0Y
0W
1V
0U
0R
0P
1M
1L
1G
0C
#240000
1?
0/
17
14
1"
0)
1@
1;
00
0(
1=
0:
1$
01
0+
1-
0#
0,
1+!
1*!
1(!
1&!
0%!
1"!
1}
0z
0y
0x
1v
0u
0t
0r
0q
1m
0l
1k
1L!
0l!
1k!
0g!
0f!
0d!
0c!
1b!
0`!
0_!
0^!
1[!
1X!
0U!
1T!
1R!
1P!
1O!
1I!
1H!
1F!
1D!
0C!
1@!
1=!
0:!
09!
08!
16!
05!
04!
02!
01!
1-!
0,!
1^
1]
1[
1Y
0X
1U
1R
0O
0N
0M
1K
0J
0I
0G
0F
1B
0A
#250000
0?
0@
10
1(
1:
0$
11
1,
0.
13
0>
16
1!
05
0+!
0*!
0)!
1%!
1!!
0~
1|
1z
1y
0w
1u
1q
0m
1j
1M!
0k!
1g!
1c!
0a!
1_!
1^!
1\!
0Z!
1Y!
1U!
0Q!
0P!
0O!
0I!
0H!
0G!
1C!
1?!
0>!
1<!
1:!
19!
07!
15!
11!
0-!
0^
0]
0\
1X
1T
0S
1Q
1O
1N
0L
1J
1F
0B
#260000
1?
0(
0:
1$
01
1.
06
15
1/
0"
1)
0-
1<
1*!
1'!
0%!
0!!
1~
0z
1x
1w
0v
1r
0q
1m
0k
0L!
1k!
0g!
1f!
0b!
1a!
1`!
0^!
1Z!
0Y!
0U!
1S!
1P!
1H!
1E!
0C!
0?!
1>!
0:!
18!
17!
06!
12!
01!
1-!
1]
1Z
0X
0T
1S
0O
1M
1L
0K
1G
0F
1B
#270000
0$
16
0/
0)
1-
03
0!
04
1#
08
19
1'
1*
1$!
0#!
1!!
0}
0|
0x
1v
1s
0r
1p
0m
1l
0j
0M!
1l!
0k!
1h!
0f!
1e!
1b!
0`!
0\!
0[!
1Y!
0W!
1V!
1B!
0A!
1?!
0=!
0<!
08!
16!
13!
02!
10!
0-!
1,!
1W
0V
1T
0R
0Q
0M
1K
1H
0G
1E
0B
1A
#280000
1$
06
1/
1)
0-
1!
09
0?
1(
1:
0.
00
0,
1>
12
0&
0*!
1)!
1%!
0$!
0!!
1{
0y
1x
0w
0v
0u
1r
1q
0o
1m
1j
1M!
1k!
0i!
1g!
1f!
0c!
0b!
0a!
1`!
0_!
1]!
0Y!
0V!
1U!
1Q!
0P!
0H!
1G!
1C!
0B!
0?!
1;!
09!
18!
07!
06!
05!
12!
11!
0/!
1-!
0]
1\
1X
0W
0T
1P
0N
1M
0L
0K
0J
1G
1F
0D
1B
#290000
16
0/
1?
0:
0>
02
1&
14
0#
18
0*
05
0<
1@
0;
1%
1+!
1*!
0)!
0'!
0&!
0%!
1#!
1!!
0~
1}
0{
0x
0s
1o
1n
0l
0l!
1j!
1i!
0e!
0`!
0]!
1[!
0Z!
1Y!
1W!
0U!
0T!
0S!
0Q!
1P!
1O!
1I!
1H!
0G!
0E!
0D!
0C!
1A!
1?!
0>!
1=!
0;!
08!
03!
1/!
1.!
0,!
1^
1]
0\
0Z
0Y
0X
1V
1T
0S
1R
0P
0M
0H
1D
1C
0A
#300000
1/
1:
12
0&
04
08
15
1<
1;
0%
0$
19
10
1,
11
1+
1'!
1&!
1%!
1$!
0#!
1~
0}
1{
1z
1y
1x
1u
1t
0o
0n
0m
0k!
0j!
0i!
1d!
1c!
1`!
1_!
1^!
1]!
0[!
1Z!
0W!
1V!
1U!
1T!
1S!
1E!
1D!
1C!
1B!
0A!
1>!
0=!
1;!
1:!
19!
18!
15!
14!
0/!
0.!
0-!
1Z
1Y
1X
1W
0V
1S
0R
1P
1O
1N
1M
1J
1I
0D
0C
0B
#310000
0/
02
14
18
05
0<
1%
09
0+
1*
1-
0!
1.
1"
0'!
0$!
1#!
0~
1}
0{
0x
1w
1v
0t
1s
1n
1k
0j
0M!
1L!
1j!
1e!
0d!
1b!
1a!
0`!
0]!
1[!
0Z!
1W!
0V!
0S!
0E!
0B!
1A!
0>!
1=!
0;!
08!
17!
16!
04!
13!
1.!
0Z
0W
1V
0S
1R
0P
0M
1L
1K
0I
1H
1C
#320000
12
08
15
1<
19
1+
0-
1!
1&
0?
0)
0(
0=
0*!
0(!
1'!
1$!
0#!
1~
1{
0v
1t
0r
0q
1o
1j
1M!
1i!
0g!
0f!
1d!
0b!
1]!
1Z!
0W!
1V!
1S!
0R!
0P!
0H!
0F!
1E!
1B!
0A!
1>!
1;!
06!
14!
02!
01!
1/!
0]
0[
1Z
1W
0V
1S
1P
0K
1I
0G
0F
1D
#330000
18
0<
0+
0!
1)
1/
04
0%
0*
0.
0:
0;
0,
06
1>
1#
1)!
0'!
0&!
0%!
1#!
0!!
0}
1x
0w
0u
0t
0s
1r
0n
1l
0j
0M!
1l!
0j!
1f!
0e!
0d!
0c!
0a!
1`!
0[!
0Y!
1W!
0U!
0T!
0S!
1Q!
1G!
0E!
0D!
0C!
1A!
0?!
0=!
18!
07!
05!
04!
03!
12!
0.!
1,!
1\
0Z
0Y
0X
1V
0T
0R
1M
0L
0J
0I
0H
1G
0C
1A
#340000
08
0)
0/
1%
1.
1:
1,
16
0>
0#
05
1?
1=
1$
01
0@
0'
0+!
1*!
0)!
1(!
1%!
0#!
1!!
0~
0z
0x
1w
1u
0r
0p
1n
1m
0l
0l!
1k!
1j!
0h!
0f!
1c!
1a!
0`!
0^!
0Z!
1Y!
0W!
1U!
1R!
0Q!
1P!
0O!
0I!
1H!
0G!
1F!
1C!
0A!
1?!
0>!
0:!
08!
17!
15!
02!
00!
1.!
1-!
0,!
0^
1]
0\
1[
1X
0V
1T
0S
0O
0M
1L
1J
0G
0E
1C
1B
0A
#350000
0%
0:
1>
1#
0?
0$
1<
1+
1!
14
1*
02
09
1-
0&
0"
00
07
0*!
1)!
1'!
0%!
0$!
0"!
1}
0{
0y
1v
1t
1s
0o
0n
0m
1l
0k
1j
1M!
0L!
1l!
0k!
0j!
0i!
1e!
1d!
1b!
0_!
0]!
1[!
0X!
0V!
0U!
1S!
1Q!
0P!
0H!
1G!
1E!
0C!
0B!
0@!
1=!
0;!
09!
16!
14!
13!
0/!
0.!
0-!
1,!
0]
1\
1Z
0X
0W
0U
1R
0P
0N
1K
1I
1H
0D
0C
0B
1A
#360000
0>
1?
1$
0<
0+
04
18
1/
0.
15
1@
1'
1;
1(
13
1+!
1*!
0)!
0'!
1&!
1#!
1~
0}
1|
1x
0w
0t
1q
1p
1m
1k!
1h!
1g!
0d!
0a!
1`!
1\!
0[!
1Z!
1W!
1T!
0S!
0Q!
1P!
1O!
1I!
1H!
0G!
0E!
1D!
1A!
1>!
0=!
1<!
18!
07!
04!
11!
10!
1-!
1^
1]
0\
0Z
1Y
1V
1S
0R
1Q
1M
0L
0I
1F
1E
1B
#370000
1>
0?
1+
08
1.
0@
0(
03
0#
0!
19
0-
1&
1"
10
1)
0=
0+!
0*!
1)!
0(!
1$!
0#!
0|
1y
1w
0v
1t
1r
0q
1o
0l
1k
0j
0M!
1L!
0l!
1i!
0g!
1f!
1d!
0b!
1a!
1_!
0\!
0W!
1V!
0R!
1Q!
0P!
0O!
0I!
0H!
1G!
0F!
1B!
0A!
0<!
19!
17!
06!
14!
12!
01!
1/!
0,!
0^
0]
1\
0[
1W
0V
0Q
1N
1L
0K
1I
1G
0F
1D
0A
#380000
1@
1(
1#
09
1-
0&
00
0)
0$
1<
14
0/
0;
0*
12
0,
06
1+!
1'!
0&!
0$!
0!!
1}
1{
0y
0x
1v
0u
0s
0r
1q
0o
0m
1l
1l!
0k!
0i!
1g!
0f!
0e!
0c!
1b!
0`!
0_!
1]!
1[!
0Y!
0V!
0T!
1S!
1O!
1I!
1E!
0D!
0B!
0?!
1=!
1;!
09!
08!
16!
05!
03!
02!
11!
0/!
0-!
1,!
1^
1Z
0Y
0W
0T
1R
1P
0N
0M
1K
0J
0H
0G
1F
0D
0B
1A
#390000
0@
0#
0-
1)
1$
0<
04
1;
1*
1?
18
0.
1!
0"
05
1%
17
0+!
1*!
0'!
1&!
1#!
1"!
0~
0}
0w
0v
1s
1r
1n
1m
0l
0k
1j
1M!
0L!
0l!
1k!
1j!
1f!
1e!
0b!
0a!
0[!
0Z!
1X!
1W!
1T!
0S!
1P!
0O!
0I!
1H!
0E!
1D!
1A!
1@!
0>!
0=!
07!
06!
13!
12!
1.!
1-!
0,!
0^
1]
0Z
1Y
1V
1U
0S
0R
0L
0K
1H
1G
1C
1B
0A
#400000
0)
0$
14
0;
0*
08
1.
0!
1"
0(
10
1,
16
0>
0+
0'
0)!
0&!
0#!
1!!
1}
1y
1w
1u
0t
0s
0r
0q
0p
0m
1k
0j
0M!
1L!
0k!
0h!
0g!
0f!
0e!
0d!
1c!
1a!
1_!
1[!
1Y!
0W!
0T!
0Q!
0G!
0D!
0A!
1?!
1=!
19!
17!
15!
04!
03!
02!
01!
00!
0-!
0\
0Y
0V
1T
1R
1N
1L
1J
0I
0H
0G
0F
0E
0B
